{
  "memoryReservation": 500,
  "memory": 512,
  "portMappings": [{
    "containerPort": 5000,
    "protocol": "tcp"
  }],
  "environment": [{
      "name": "ASPNETCORE_ENVIRONMENT",
      "value": "Development"
    },
    {
      "name": "CONFIGURATION_EXECUTION_MODE",
      "value": "RW"
    },
    {
      "name": "LOG_EXCLUDEPROPERTIES",
      "value": "password"
    },
    {
      "name": "EVENTHUB_URL",
      "value": "http://eventhub:5000"
    },
    {
      "name": "SECRET_KEY",
      "value": "UzFnbjFuZz1zM2NyM3Q="
    },
    {
      "name": "CONFIGURATION_REDIS_PORT",
      "value": "${REDIS_PORT}"
    },
    {
      "name": "CONFIGURATION_REDIS_HOST",
      "value": "${REDIS_HOST}"
    }
  ]
}
