{
  "memoryReservation": 250,
  "memory": 256,
  "portMappings": [
    {
        "containerPort": 8080,
        "protocol": "tcp"
    }
  ],
  "mountPoints": [
    {
      "sourceVolume": "assets",
      "containerPath": "/public"
    }
  ]
}
