{
  "memoryReservation": 352,
  "memory": 384,
  "portMappings": [{
    "containerPort": 5000,
    "protocol": "tcp"
  }],
  "environment": [{
      "name": "ASPNETCORE_ENVIRONMENT",
      "value": "Development"
    },
    {
      "name": "HUNTER-FILE-EXPORT_NATS_URL",
      "value": "${NATS_URL}"
    },
	{
		"name": "TASK_TENANT",
		"value": "${TENANT_NAME}"
	},
	{
		"name": "TASK_SCHEDULE",
		"value": "0 0/30 * 1/1 * ? *"
	},
    {
		"name": "HUNTER-FILE-EXPORT_EVENTHUB_HOST",
		"value": "eventhub"
    },
    {
		"name": "HUNTER-FILE-EXPORT_EVENTHUB_PORT",
		"value": "5000"
    },
    {
		"name": "HUNTER-FILE-EXPORT_APPLICATIONFILTER_HOST",
		"value": "application-filters"
    },
    {
		"name": "HUNTER-FILE-EXPORT_APPLICATIONFILTER_PORT",
		"value": "5000"
    },
    {
		"name": "HUNTER-FILE-EXPORT_CONFIGURATION_HOST",
		"value": "configuration"
    },
    {
		"name": "HUNTER-FILE-EXPORT_CONFIGURATION_PORT",
		"value": "5000"
    },
    {
		"name": "HUNTER-FILE-EXPORT_DATA_ATTRIBUTES_HOST",
		"value": "data-attributes"
    },
    {
		"name": "HUNTER-FILE-EXPORT_DATA_ATTRIBUTES_PORT",
		"value": "5000"
    },
    {
		"name": "HUNTER-FILE-EXPORT_DECISION_ENGINE_HOST",
		"value": "decision-engine"
    },
    {
		"name": "HUNTER-FILE-EXPORT_DECISION_ENGINE_PORT",
		"value": "5000"
    },
    {
		"name": "HUNTER-FILE-EXPORT_DOCUMENT_MANAGER_HOST",
		"value": "document-manager"
    },
    {
		"name": "HUNTER-FILE-EXPORT_DOCUMENT_MANAGER_PORT",
		"value": "5000"
    },
    {
      "name": "SECRET_KEY",
      "value": "UzFnbjFuZz1zM2NyM3Q="
    }
  ]
}
