{
  "memoryReservation": 1000,
  "memory": 1024,
  "portMappings": [{
    "containerPort": 5000,
    "protocol": "tcp"
  }],
  "environment": [{
      "name": "ASPNETCORE_ENVIRONMENT",
      "value": "Development"
    },
    {
      "name": "CONFIGURATION_URL",
      "value": "http://configuration:5000"
    },
    {
      "name": "EVENTHUB_URL",
      "value": "http://eventhub:5000"
    },
    {
      "name": "NATS_URL",
      "value": "nats://nats:4222"
    },
    {
      "name": "TENANT_URL",
      "value": "http://tenant:5000"
    },
    {
      "name": "CONFIGURATION_NAME",
      "value": "application-documents"
    },
    {
      "name": "SECRET_KEY",
      "value": "UzFnbjFuZz1zM2NyM3Q="
    }
  ]
}
