{
  "memoryReservation": 500,
  "memory": 512,
  "portMappings": [{
    "containerPort": 9002,
    "protocol": "tcp"
  }],
  "environment": [{
      "name": "NODE_ENV",
      "value": "production"
    },
    {
      "name": "ALLOY_PORTAL",
      "value": "backoffice-portal"
    },
    {
      "name": "CONFIGURATION_HOST",
      "value": "http://configuration:5000/"
    },
    {
      "name": "SECURITY_HOST",
      "value": "http://security-identity:5000"
    },
    {
      "name": "VERIFICATION_ENGINE_HOST",
      "value": "http://verification-engine:5000/"
    },
    {
      "name": "STATUS_MANAGEMENT_HOST",
      "value": "http://status-management:5000/"
    },
    {
      "name": "PORT",
      "value": "9002"
    }, 
    {
      "name": "IFSC_API",
      "value": "https://ifsc.razorpay.com/"
    },
    {
      "name": "TENANT_NAME",
      "value": "${TENANT_NAME}"
    },
    {
      "name": "CONFIG_PORTAL",
      "value": "backoffice-portal"
    },
    {
      "name": "ROUTING_NUMBER_API",
      "value": "https://www.routingnumbers.info/api/"
    },
    {
      "name": "SECRET_KEY",
      "value": "UzFnbjFuZz1zM2NyM3Q="
    },
    {
      "name": "APP_TOKEN",
      "value": "Bearer ${PORTAL_TOKEN}"
    }
  ]
}
