{
  "memoryReservation": 1000,
  "memory": 1024,
  "portMappings": [{
    "containerPort": 80,
    "protocol": "tcp"
  }],
  "environment": [{
      "name": "PORT",
      "value": "80"
    },
    {
      "name": "PERFIOS_LIVE",
      "value": "LIVE"
    },
    {
      "name": "UPLINK_ENDPOINT",
      "value": "${WORKFLOW_URL}"
    },
    {
      "name": "DEFAULT_TOKEN",
      "value": "${PORTAL_TOKEN}"
    },
    {
      "name": "OFFER_MODE",
      "value": "MANUAL"
    },
    {
      "name": "LENDO_SCRIPT_ID",
      "value": "58d87e9d5a590f3d1d541ab0"
    },
    {
      "name": "ORBIT_IDENTITY",
      "value": "https://services.qbera.com:9443/service-orbit-identity-orbit-identity"
    },
    {
      "name": "ORBIT_IDENTITY_CLIENT",
      "value": "credit-exchange"
    },
    {
      "name": "ORBIT_IDENTITY_USER",
      "value": "borrower@portal.com"
    },
    {
      "name": "ORBIT_IDENTITY_PASSWORD",
      "value": "Afyk22@31fDfs"
    },
    {
      "name": "ORBIT_IDENTITY_REALM",
      "value": "borrower-portal"
    }
  ]
}
