
{
  "memoryReservation": 60,
  "memory": 64,
  "portMappings": [
    {
      "containerPort": 80,
      "protocol": "tcp"
    }
  ],
  "environment": [{
      "name": "PORT",
      "value": "80"
    }
  ]
}
