{
  "memoryReservation": 352,
  "memory": 384,
  "portMappings": [{
    "containerPort": 5000,
    "protocol": "tcp"
  }],
  "environment": [
	{
      		"name": "ASPNETCORE_ENVIRONMENT",
      		"value": "Development"
    	},
    	{
      		"name": "INACTIVE-APPLICATION-NOTIFICATIONS_NATS_URL",
      		"value": "${NATS_URL}"
    	},
	{
		"name": "TASK_TENANT",
		"value": "${TENANT_NAME}"
	},
	{
		"name": "TASK_SCHEDULE",
                "value": "0 0 11 1/1 * ? *"
        },
    	{
		"name": "INACTIVE-APPLICATION-NOTIFICATIONS_EVENTHUB_HOST",
		"value": "eventhub"
    	},
    	{
		"name": "INACTIVE-APPLICATION-NOTIFICATIONS_EVENTHUB_PORT",
		"value": "5000"
    	},
    	{
		"name": "INACTIVE-APPLICATION-NOTIFICATIONS_APPLICATIONFILTER_HOST",
		"value": "application-filters"
    	},
    	{
		"name": "INACTIVE-APPLICATION-NOTIFICATIONS_APPLICATIONFILTER_PORT",
		"value": "5000"
    	},
    	{
		"name": "INACTIVE-APPLICATION-NOTIFICATIONS_CONFIGURATION_HOST",
		"value": "configuration"
    	},
    	{
		"name": "INACTIVE-APPLICATION-NOTIFICATIONS_CONFIGURATION_PORT",
		"value": "5000"
    	},
    	{
		"name": "INACTIVE-APPLICATION-NOTIFICATIONS_ACTIVITYLOG_HOST",
		"value": "activity-log"
    	},
    	{
		"name": "INACTIVE-APPLICATION-NOTIFICATIONS_ACTIVITYLOG_PORT",
		"value": "5000"
    	},
    	{
    		"name": "INACTIVE-APPLICATION-NOTIFICATIONS_TENANT_HOST",
		"value": "tenant"
    	},
    	{
      		"name": "INACTIVE-APPLICATION-NOTIFICATIONS_TENANT_PORT",
      		"value": "5000"
      	},
    	{
    		"name": "INACTIVE-APPLICATION-NOTIFICATIONS_MONGO_CONNECTION",
    		"value": "${APP_MONGODB_URI}"
    	},
    	{
      		"name": "INACTIVE-APPLICATION-NOTIFICATIONS_MONGO_DATABASE",
      		"value": "inactive-application-notifications"
    	},
		{
		  "name": "SECRET_KEY",
		  "value": "UzFnbjFuZz1zM2NyM3Q="
		}
  ]
}
