{
  "memoryReservation": 352,
  "memory": 384,
  "portMappings": [{
    "containerPort": 5000,
    "protocol": "tcp"
  }],
  "environment": [{
      "name": "ASPNETCORE_ENVIRONMENT",
      "value": "Development"
    },
    {
      "name": "SAVE-DOC-TO-APPDOCS_NATS_URL",
      "value": "${NATS_URL}"
    },
	{
		"name": "TASK_TENANT",
		"value": "${TENANT_NAME}"
	},
	{
		"name": "TASK_SCHEDULE",
		"value": "0 0/30 * 1/1 * ? *"
	},
    {
		"name": "SAVE-DOC-TO-APPDOCS_EVENTHUB_HOST",
		"value": "eventhub"
    },
    {
		"name": "SAVE-DOC-TO-APPDOCS_EVENTHUB_PORT",
		"value": "5000"
    },
    {
		"name": "SAVE-DOC-TO-APPDOCS_TENANT_HOST",
		"value": "tenant"
    },
    {
		"name": "SAVE-DOC-TO-APPDOCS_TENANT_PORT",
		"value": "5000"
    },
    {
		"name": "SAVE-DOC-TO-APPDOCS_CONFIGURATION_HOST",
		"value": "configuration"
    },
    {
		"name": "SAVE-DOC-TO-APPDOCS_CONFIGURATION_PORT",
		"value": "5000"
    },
    {
		"name": "SAVE-DOC-TO-APPDOCS_APPLICATION_DOCUMENT_HOST",
		"value": "application-document"
    },
    {
		"name": "SAVE-DOC-TO-APPDOCS_APPLICATION_DOCUMENT_PORT",
		"value": "5000"
    },
    {
		"name": "SAVE-DOC-TO-APPDOCS_APPLICATIONFILTER_HOST",
		"value": "application-filters"
    },
    {
		"name": "SAVE-DOC-TO-APPDOCS_APPLICATIONFILTER_PORT",
		"value": "5000"
    },
	{
      "name": "SECRET_KEY",
      "value": "UzFnbjFuZz1zM2NyM3Q="
    }
  ]
}
