{
  "memoryReservation": 352,
  "memory": 384,
  "portMappings": [{
    "containerPort": 5000,
    "protocol": "tcp"
  }],
  "environment": [{
      "name": "ASPNETCORE_ENVIRONMENT",
      "value": "Development"
    },
    {
      "name": "LENDDO_NATS_URL",
      "value": "${NATS_URL}"
    },
    {
      "name": "LENDDO_CONFIGURATION_HOST",
      "value": "configuration"
    },
    {
      "name": "LENDDO_CONFIGURATION_PORT",
      "value": "5000"
    },
    {
      "name": "LENDDO_EVENTHUB_HOST",
      "value": "eventhub"
    },
    {
      "name": "LENDDO_EVENTHUB_PORT",
      "value": "5000"
    },
    {
      "name": "LENDDO_TENANT_HOST",
      "value": "tenant"
    },
    {
      "name": "LENDDO_TENANT_PORT",
      "value": "5000"
    },
    {
      "name": "LENDDO_LOOKUPSERVICE_HOST",
      "value": "lookup-service"
    },
    {
      "name": "LENDDO_LOOKUPSERVICE_PORT",
      "value": "5000"
    },
	{
      "name": "SECRET_KEY",
      "value": "UzFnbjFuZz1zM2NyM3Q="
    }
  ]
}
