{
  "memoryReservation": 500,
  "memory": 512,
  "portMappings": [{
    "containerPort": 5000,
    "protocol": "tcp"
  }],
  "environment": [{
      "name": "ASPNETCORE_ENVIRONMENT",
      "value": "Development"
    },
    {
      "name": "PERFIOS_NATS_URL",
      "value": "${NATS_URL}"
    },
    {
      "name": "PERFIOS_MONGO_DATABASE",
      "value": "perfios-Data"
    },
    {
      "name": "PERFIOS_MONGO_CONNECTION",
      "value": "${APP_MONGODB_URI}"
    },
    {
      "name": "PERFIOS_CONFIGURATION_HOST",
      "value": "configuration"
    },
    {
      "name": "PERFIOS_CONFIGURATION_PORT",
      "value": "5000"
    },
    {
      "name": "PERFIOS_EVENTHUB_HOST",
      "value": "eventhub"
    },
    {
      "name": "PERFIOS_EVENTHUB_PORT",
      "value": "5000"
    },
    {
      "name": "PERFIOS_TENANT_HOST",
      "value": "tenant"
    },
    {
      "name": "PERFIOS_TENANT_PORT",
      "value": "5000"
    },
    {
      "name": "PERFIOS_TLSPROXY_HOST",
      "value": "tlsproxy"
    },
    {
      "name": "PERFIOS_TLSPROXY_PORT",
      "value": "5000"
    },
    {
      "name": "PERFIOS_LOOKUPSERVICE_HOST",
      "value": "lookup-service"
    },
    {
      "name": "PERFIOS_LOOKUPSERVICE_PORT",
      "value": "5000"
    },
	{
      "name": "SECRET_KEY",
      "value": "UzFnbjFuZz1zM2NyM3Q="
    }
  ]
}
